_HELICOPTER = 11;

_gravity = 9.781;				%gravity
_radius = 6.3781e6;				%radius of the earth

GCS_IP_ADDR = 192.168.1.110
%% ---------------- trim values -------------------
_equ_Hover = [
	0, 0, 0,				% u, v, w
	0, 0, 0,				% p, q, r
	0, 0, 0,	    		% a, b, c
	0, 0, 0,				% as,bs,rfb
	-0.00, -0.00, -0.1722, 0.00, 0.48		%ea, ee, eu, er, et
];


%% -------------- Linear model for GremLion -----------------
_m_A_GREMLION = [
   -0.0568         0         0         0         0   -9.8457   -9.8457         0         0         0	0;
         0   -0.1319         0         0    9.8457         0         0    9.8457         0         0	0;
         0         0         0         0         0         0   48.6206  151.7766         0         0	0;
         0         0         0         0         0         0   83.2644  -51.8372         0         0	0;
         0         0    1.0000         0         0         0         0         0         0         0	0;
         0         0         0    1.0000         0         0         0         0         0         0	0;
         0         0         0   -1.1462         0         0  -16.6418   -9.6723         0         0	0;
         0         0   -1.1462         0         0         0    5.4685  -16.6418         0         0	0;
         0         0         0         0         0         0         0         0   -0.3093         0	0;
         0         0         0         0         0         0         0         0  -11.5963  -78.4006	0;
         0         0         0         0         0         0         0         0  		0			1	0         
];

_m_B_GREMLION = [
    0 0 0 0;
    0 0 0 0;
    0 0 0 0;
    0 0 0 0;
    0 0 0 0;
    0 0 0 0;
    0.8528  4.0533   0       0;
    -3.2491 -0.1096  0       0;
    0       0       -14.1137 0;
    0       0       -85.159  -1680.1;
    0		0		0		0
];

_B5_F_GREMLION = [
   -0.2961         0         0   -1.2566         0         0;
         0   -0.2961         0         0   -1.2566         0;
         0         0   -0.7402         0         0   -2.0420
];

_B5_G_GREMLION = [
    0.2961         0         0;
         0    0.2961         0;
         0         0    0.7402
];

_B5_F_GREMLION_RPT0 = [
   -0.2500         0         0   -1.0000         0         0;
         0   -0.2500         0         0   -1.0000         0;
         0         0   -0.2500         0         0   -1.0000
];
_B5_G_GREMLION_RPT0 = [
    0.2500         0         0    1.0000         0         0    1.0000         0         0;
         0    0.2500         0         0    1.0000         0         0    1.0000         0;
         0         0    0.2500         0         0    1.0000         0         0    1.0000
];

_B5_Aorg_GREMLION = [
	0		1;
	-4		-4
];
_B5_Borg_GREMLION = [0, 4];

_A2_F_GREMLION0 = [
   -0.0033   -0.0097    0.4087   -0.2385    1.9084   -0.6430    1.3846    8.7457         0         0         0;
   -0.0048    0.0067   -0.4368   -0.1143   -1.3158   -0.9326   -5.0959   -4.4746         0         0         0;
         0         0         0         0         0         0         0         0         0    		0					0;
         0         0         0         0         0         0         0         0         0    0.0014    0.0224
];

_A2_G_GREMLION0 = [
   -0.0655   -0.1945	0     0;
   -0.0951    0.1341    0     0;
   		0		0		0	  0;
        0       0   	0	-0.0224		
];

B5_FVn0 = -0.9425;
B5_FVn1 = -1.5708;
%B5_FVn1 = -1.2566;
B5_FVn2 = -1.2566;
B5_FVn3 = -1.5708;
B5_FVn4 = -0.6566;
%B5_FVn4 = -1.5708;

_A2_F_GREMLION1 = [
   -0.0044   -0.0144    0.4682   -0.2743    2.8350   -0.8477    1.1016    9.3932         0         0         0;
   -0.0062    0.0102   -0.5072   -0.1646   -1.9980   -1.2028   -6.4963   -4.7229         0         0         0;
         0         0         0         0         0         0         0         0         0    		0		0;
         0         0         0         0         0         0         0         0         0    0.0027    0.0447
];
_A2_G_GREMLION1 = [
   -0.0864   -0.2890	0     0;
   -0.1226    0.2037    0     0;
      	0		0		0	  0;
        0       0   	0	-0.0447
];

_A2_F_GREMLION2 = [
   -0.0034   -0.0145    0.4783   -0.2442    2.8402   -0.6502    1.6630    9.6060         0         0         0;
   -0.0048    0.0101   -0.4993   -0.1133   -1.9907   -0.9276   -5.4531   -5.0342         0         0         0;
         0         0         0         0         0         0         0         0         0    		0		 0;
         0         0         0         0         0         0         0         0         0    0.0027    0.0447
];
_A2_G_GREMLION2 = [
   -0.0663   -0.2895	0     0;
   -0.0946    0.2029    0     0;
      	0		0		0	  0;  
        0       0   	0	-0.0447
];

_A2_F_GREMLION3 = [
   -0.0046   -0.0135    0.4796   -0.2869    2.6514   -0.8812    1.3557   11.3570         0         0         0;
   -0.0063    0.0098   -0.5139   -0.1573   -1.9278   -1.2120   -6.1990   -5.1096         0         0         0;
         0         0         0         0         0         0         0         0         0    		0		 0; 
         0         0         0         0         0         0         0         0         0    0.0035    0.0592
];
_A2_G_GREMLION3 = [
   -0.0898   -0.2703	0     0;
   -0.1235    0.1965    0     0;
      	0		0		0	  0;    
        0       0  		0  -0.0592
];

_A2_F_GREMLION4 = [
   -0.0044   -0.0144    0.4682   -0.2743    2.8350   -0.8477    1.1016    9.3932         0         0         0;
   -0.0062    0.0102   -0.5072   -0.1646   -1.9980   -1.2028   -6.4963   -4.7229         0         0         0;
         0         0         0         0         0         0         0         0         0    		0		 0; 
         0         0         0         0         0         0         0         0         0    0.0051    0.0866
];
_A2_G_GREMLION4 = [
   -0.0864   -0.2890	0     0;
   -0.1226    0.2037    0     0;
      	0		0		0	  0;     
        0       0   	0	-0.0866
];
%_A2_F_GREMLION = [
%   -0.0033   -0.0097    0.4107   -0.2349    1.9048   -0.6455    1.7097    8.8439         0         0         0;
%   -0.0048    0.0067   -0.4351   -0.1025   -1.3209   -0.9309   -4.3615   -4.6030         0         0         0;
%         0         0         0         0         0         0         0         0   -0.0270    0.0002   -0.0004;
%         0         0         0         0         0         0         0         0         0    0.0022    0.0313
%];

%_A2_G_GREMLION = [
%   -0.0658   -0.1942         0         0;
%   -0.0949    0.1346         0         0;
%         0         0   -0.0836    0.0004;
%         0         0         0   -0.0313
%];

_A2_F_GREMLION_NEW0 = [
    0.6793   -0.0462         0    0.3719   -0.0610         0    2.5987    3.4620;
   -0.4740   -0.1157         0   -0.4326    0.1563         0   -0.9755    0.8349;
         0         0    0.0467         0         0    0.0006         0         0
];

_A2_G_GREMLION_NEW0 = [
   -0.6793    0.0462         0;
    0.4740    0.1157         0;
         0         0   -0.0467
];

_A2_TRANS_GREMLION0 = [
         0         0   -0.0709;
   -0.0000    0.1022         0;
   -0.1022         0         0
];


_A2_F_GREMLION_NEW1 = [
    0.3463   -0.1325         0    0.0256   -0.1088         0    0.7272    2.6033;
   -0.2416   -0.3316         0   -0.1910    0.0364         0    0.7606    0.7425;
         0         0    0.0714         0         0    0.0018         0         0
];
_A2_G_GREMLION_NEW1 = [
   -0.3463    0.1325         0;
    0.2416    0.3316         0;
         0         0   -0.0714
];
_A2_TRANS_GREMLION1 = [
         0         0   -0.0709;
    0.0000    0.1022         0;
   -0.1022         0         0
];
% --------------------- Observer for GremLion ---------------------
_Ae_GREMLION1 = [
  -75.0172         0         0         0    0.2208         0         0         0;
         0  -25.0000         0    0.0000         0         0         0         0;
         0         0  -30.0000         0         0         0         0         0;
    0.0000   -0.0000         0  -28.6133   -9.8191         0  151.7766   48.6206;
    0.4158   -0.0000         0    5.3933  -83.0858         0  -51.8372   83.2644;
         0         0 -120.0000         0         0  -33.0994         0         0;
   -1.0851    0.4667         0   -0.1450   -2.7899         0  -19.0879   -3.0714;
   -0.6423   -1.4569         0   -0.0450   -3.6149         0   -5.9690  -11.4121
];

_Be_GREMLION1 = [
   75.0172         0         0    1.0000   -0.2208         0         0         0         0;
         0   25.0000         0   -0.0000    1.0000         0         0         0         0;
         0         0   30.0000         0         0    1.0000         0         0         0;
   -0.0000    0.0000         0   28.6133    9.8191         0         0         0         0;
   -0.4158    0.0000         0   -5.3933   83.0858         0         0         0         0;
         0         0         0         0         0  -48.4006         0         0  120.0000;
   -0.0136    0.0000         0   -1.0635    3.1395         0    1.0986   -0.4667         0;
   -0.0417   -0.0000         0   -0.7074    2.5235         0    0.6840    1.4569         0
];

%_Ae_GREMLION1 = [
%  -75.0172         0         0         0    0.2208         0         0         0;
%         0  -25.0000         0    0.0000         0         0         0         0;
%         0         0  -30.0000         0         0         0         0         0;
%    0.0000   -0.0000         0  -28.6133   -9.8191         0  151.7766   48.6206;
%    0.4158   -0.0000         0    5.3933  -83.0858         0  -51.8372   83.2644;
%         0         0 -120.0000         0         0  -33.0994         0         0;
%   -2.1417    1.3024         0   -1.2436   -2.4158         0  -26.0839   -4.0951;
%   -1.3001   -4.0657         0   -0.7289   -4.7826         0   -7.9585  -15.8499
%];

%_Be_GREMLION1 = [
%   75.0172         0         0    1.0000   -0.2208         0	0         0         0;
%         0   25.0000         0   -0.0000    1.0000         0	0         0         0;
%         0         0   30.0000         0         0    1.0000	0         0         0;
%   -0.0000    0.0000         0   28.6133    9.8191         0	0         0         0;
%   -0.4158    0.0000         0   -5.3933   83.0858         0	0         0         0;
%         0         0         0         0         0  -48.4006	0         0  120.0000;
%   -0.0136    0.0000         0   -1.0635    3.1395         0	2.1553   -1.3024    0;
%   -0.0417   -0.0000         0   -0.7074    2.5235         0	1.3418    4.0657    0
%];

%_Ce_GREMLION0 = [
%    1.0000         0         0         0    0.0050    0.0300         0         0         0         0         0;
%         0    1.0000         0         0    0.0250         0         0         0         0         0         0
%];

%% ---------------- model A, B for simulation --------------------
_A_Hover = [
   -0.1778         0         0         0         0   -9.7807   -9.7807         0         0         0         0;
         0   -0.3104         0         0    9.7807         0         0    9.7807         0         0         0;
   -0.3326   -0.5353         0         0         0         0   75.7640  343.8600         0         0         0;
    0.1903   -0.2940         0         0         0         0  172.6200  -59.9580         0         0         0;
         0         0    1.0000         0         0         0         0         0         0         0         0;
         0         0         0    1.0000         0         0         0         0         0         0         0;
         0         0         0   -1.0000         0         0   -8.1222    4.6535         0         0         0;
         0         0   -1.0000         0         0         0   -0.0921   -8.1222         0         0         0;
         0         0         0         0         0         0         0         0   -0.6821   -0.0535         0;
         0         0         0         0         0         0         0         0   -0.2892   -5.5561  -36.6740;
         0         0         0         0         0         0         0         0         0    2.7492  -11.1120
];
 
_B_Hover = [
         0         0         0         0;
         0         0         0         0;
         0         0         0         0;
         0         0         0         0;
         0         0         0         0;
         0         0         0         0;
    0.0496    2.6224         0         0;
    2.4928    0.1741         0         0;
         0         0    7.8246         0;
         0         0    1.6349  -58.4053;
         0         0         0         0
];

_A_Model0 = [
   -0.0335   -0.0000         0         0         0   -9.7810   -9.9253         0    0.0006         0         0;
   -0.0000   -0.3201   -0.0045         0    9.7737   -0.0003         0    9.9252    0.0035    1.7068   -8.8776;
   -0.0000   -0.1416   -0.0243         0         0         0         0  478.2872    0.0366    9.2300  -48.0092;
   -0.0000   -0.0002         0   -0.0578         0         0  216.8400         0   -0.0275         0         0;
         0         0    1.0000    0.0000         0         0         0         0         0    0.0008         0;
         0         0         0    0.9993         0         0         0         0         0   -0.0387         0;
         0         0         0   -1.2301         0         0   -4.0881    2.8000         0         0         0;
         0         0   -1.2301         0         0         0    2.8120   -4.0881         0         0         0;
    0.0005    0.0033         0   -0.0054   -0.3784   -0.0079   -0.0079    0.0478   -0.7374         0         0;
    0.0005    0.3386    0.0577         0         0         0         0         0   -0.3360  -21.8848  113.8318;
         0         0         0         0         0         0         0         0         0   -1.0000         0
];

_B_Model0 = [
         0         0   -0.0170         0;
         0         0   -0.1032    6.4668;
         0         0   -1.0930   34.9720;
         0         0   -0.3275         0;
         0         0         0         0;
         0         0         0         0;
         0    3.1478         0         0;
    3.1478         0         0         0;
         0         0   21.0746         0;
         0         0   10.2735  -82.9200;
         0         0         0   -3.8500
];

_A_Model1 = [
   -0.0268    0.0001         0         0         0   -9.7808   -9.9511         0   -0.0123         0         0;
   -0.0108   -0.3013   -0.0050         0    9.7742    0.0020    0.0114    9.9142    0.0038   -1.3069   -8.7667;
   -0.0491   -0.1825   -0.0273         0         0         0    0.1206  478.1711    0.0402    9.1577  -47.4099;
   -0.0133   -0.0002         0   -0.0526         0         0  216.9114         0   -0.0287         0         0;
         0         0    1.0000   -0.0002         0         0         0         0         0   -0.0056         0;
         0         0         0    0.9993         0         0         0         0         0   -0.0368         0;
         0         0         0   -1.2301         0         0   -4.0881    2.8000         0         0         0;
         0         0   -1.2301         0         0         0    2.8120   -4.0881         0         0         0;
   -0.3896    0.0036         0    2.9951   -0.3599    0.0547   -2.3747    0.0456   -0.8458         0         0;
    0.1486    0.4290    0.0647         0         0         0   -1.9590         0   -0.3187  -21.7072  112.4109;
         0         0         0         0         0         0         0         0         0   -1.0000         0
];

_B_Model1 = [
         0         0    0.0991         0;
         0         0   -0.0958    6.3861;
         0         0   -1.0149   34.5355;
         0         0   -0.3214         0;
         0         0         0         0;
         0         0         0         0;
         0    3.1478         0         0;
    3.1478         0         0         0;
         0         0   20.5055         0;
         0         0    9.6737  -81.8849;
         0         0         0   -3.8500
];

_A_Model2 = [
   -0.0676   -0.0000         0         0         0   -9.7796   -9.9505         0    0.0005         0         0;
   -0.0150   -0.2712   -0.0059         0    9.7739    0.0056    0.0214    9.9529    0.0043   -3.3127   -8.6951;
   -0.0706   -0.2247   -0.0318         0         0         0    0.2268  478.5815    0.0454    9.1273  -47.0227;
   -0.0142   -0.0001         0   -0.0452         0         0  217.1277         0   -0.0293         0         0;
         0         0    1.0000   -0.0006         0         0         0         0         0   -0.0168         0;
         0         0         0    0.9994         0         0         0         0         0   -0.0343         0;
         0         0         0   -1.1688         0         0   -4.0881    2.8000         0         0         0;
         0         0   -1.1688         0         0         0    2.8120   -4.0881         0         0         0;
   -0.4916    0.0042         0    4.9958   -0.3354    0.1642   -4.8491    0.0428   -1.0174         0         0;
    0.2031    0.5244    0.0754         0         0         0   -3.0368         0   -0.2787  -21.6309  111.4927;
         0         0         0         0         0         0         0         0         0   -1.0000         0
];

_B_Model2 = [
         0         0   -0.0102         0;
         0         0   -0.0878    6.3339;
         0         0   -0.9299   34.2534;
         0         0   -0.2984         0;
         0         0         0         0;
         0         0         0         0;
         0    3.1478         0         0;
    3.1478         0         0         0;
         0         0   20.1302         0;
         0         0    8.8085  -81.2161;
         0         0         0   -3.8500
];

_A_Model3 = [
   -0.0948   -0.0000         0         0         0   -9.7755  -10.1170         0    0.0005         0         0;
   -0.0163   -0.2414   -0.0069         0    9.7703    0.0107    0.0340   10.1202    0.0049   -5.2917   -8.7611;
   -0.0788   -0.2711   -0.0371         0         0         0    0.3598  480.3547    0.0514    9.2420  -47.3794;
   -0.0110   -0.0001         0   -0.0377         0         0  217.9259         0   -0.0289         0         0;
         0         0    1.0000   -0.0011         0         0         0         0         0   -0.0336         0;
         0         0         0    0.9995         0         0         0         0         0   -0.0325         0;
         0         0         0   -1.1688         0         0   -4.0881    2.8000         0         0         0;
         0         0   -1.1688         0         0         0    2.8120   -4.0881         0         0         0;
   -0.4571    0.0048         0    6.9965   -0.3176    0.3284   -8.1528    0.0415   -1.2046         0         0;
    0.2015    0.6299    0.0879         0         0         0   -3.8713         0   -0.2292  -21.8987  112.3384;
         0         0         0         0         0         0         0         0         0   -1.0000         0
];

_B_Model3 = [
         0         0   -0.0083         0;
         0         0   -0.0850    6.3820;
         0         0   -0.9009   34.5132;
         0         0   -0.2425         0;
         0         0         0         0;
         0         0         0         0;
         0    3.1478         0         0;
    3.1478         0         0         0;
         0         0   20.5108         0;
         0         0    7.9752  -81.8322;
         0         0         0   -3.8500
];

_A_Model4 = [
   -0.1221   -0.0000         0         0         0   -9.7658  -10.4917         0    0.0004         0         0;
   -0.0155   -0.2205   -0.0078         0    9.7607    0.0177    0.0482   10.4952    0.0054   -7.2437   -8.9715;
   -0.0761   -0.3155   -0.0420         0         0         0    0.5105  484.3281    0.0567    9.5025  -48.5175;
   -0.0077   -0.0001         0   -0.0320         0         0  219.7143         0   -0.0275         0         0;
         0         0    1.0000   -0.0018         0         0         0         0         0   -0.0558         0;
         0         0         0    0.9995         0         0         0         0         0   -0.0324         0;
         0         0         0   -1.1688         0         0   -4.0881    2.8000         0         0         0;
         0         0   -1.1688         0         0         0    2.8120   -4.0881         0         0         0;
   -0.3780    0.0053         0    8.9970   -0.3164    0.5452  -11.9243    0.0420   -1.3590         0         0;
    0.1504    0.7308    0.0996         0         0         0   -4.5551         0   -0.1854  -22.5123  115.0369;
         0         0         0         0         0         0         0         0         0   -1.0000         0
];

_B_Model4 = [
         0         0   -0.0065         0;
         0         0   -0.0866    6.5353;
         0         0   -0.9179   35.3422;
         0         0   -0.1911         0;
         0         0         0         0;
         0         0         0         0;
         0    3.1478         0         0;
    3.1478         0         0         0;
         0         0   21.4783         0;
         0         0    7.3309  -83.7979;
         0         0         0   -3.8500
];


%% -------------- F, G in A1() -----------------
%_A1_F0 = [
%    0.0014   -0.0616   -0.0146   -0.0005   -0.7142   -0.0080   -0.1073   -1.2878    0.0017   -0.0173    0.0471;
%    0.0881    0.0013    0.0128   -0.0267    0.0208   -0.8491   -1.1861   -0.1499   -0.0003    0.0019    0.0206;
%   -0.0001   -0.0018   -0.0001   -0.0000   -0.0029    0.0008    0.0004   -0.0103   -0.0331   -0.0006    0.0007;
%    0.0007   -0.0008   -0.0029   -0.0001   -0.0052   -0.0066    0.0094    0.0206   -0.0000    0.0020    0.0125
%];
%_A1_G0 = [
%   -0.0014    0.0832   -0.0020    0.0169;
%   -0.0910   -0.0019    0.0006    0.0142;
%    0.0001    0.0022    0.0681    0.0006;
%   -0.0007    0.0010    0.0000   -0.2618
%];

_A1_F0 = [
    0.0047   -0.0869   -0.0153   -0.0013   -0.8736   -0.0342   -0.1838   -1.8391    0.0022   -0.0238    0.0661;
    0.0806    0.0061    0.0113   -0.0232    0.0775   -0.8062   -1.3922   -0.0504   -0.0009    0.0030    0.0162;
   -0.0003   -0.0057   -0.0006   -0.0001   -0.0126    0.0011   -0.0002   -0.0492   -0.0825   -0.0021    0.0035;
    0.0007   -0.0014   -0.0039   -0.0000   -0.0087   -0.0073    0.0144    0.0348   -0.0000    0.0019    0.0134
];
_A1_G0 = [
   -0.0048    0.1133   -0.0025    0.0237;
   -0.0834   -0.0084    0.0013    0.0128;
    0.0003    0.0065    0.1175    0.0021;
   -0.0007    0.0017    0.0000   -0.2617
];

_A1_F1 = [
    0.0053   -0.0649   -0.0156   -0.0037   -0.7233   -0.0506   -0.2179   -1.8370    0.0024   -0.0233    0.2672;
    0.0933    0.0051    0.0123   -0.0278    0.0742   -0.8419   -1.5847   -0.0754   -0.0171    0.0031   -0.0007;
    0.0115   -0.0025   -0.0003   -0.0028    0.0048    0.1325   -0.0796   -0.0366   -0.0729   -0.0020    0.0073;
    0.0007   -0.0130   -0.0050    0.0004   -0.0681   -0.0055    0.0187   -0.0167    0.0001    0.0018    0.0505
];
_A1_G1 = [
   -0.0060    0.0857   -0.0048    0.2470;
   -0.0950   -0.0071    0.0173   -0.0108;
    0.0078    0.0027    0.1144    0.0006;
   -0.0006    0.0151   -0.0001   -0.2408
];

_A1_F2 = [
    0.0068   -0.0550   -0.0165   -0.0060   -0.6366   -0.0652   -0.2645   -1.8951    0.0004   -0.0239    0.4144;
    0.0946    0.0047    0.0132   -0.0348    0.0655   -0.8999   -1.8224   -0.1096   -0.0177    0.0032   -0.0171;
    0.0062   -0.0021   -0.0004   -0.0042   -0.0009    0.2954   -0.0844   -0.0409   -0.0651   -0.0022    0.0111;
    0.0008   -0.0249   -0.0061    0.0008   -0.1181   -0.0021    0.0234   -0.0529   -0.0002    0.0026    0.1427
];
_A1_G2 = [
   -0.0072    0.0706   -0.0025    0.4231;
   -0.1017   -0.0062    0.0187   -0.0299;
    0.0198    0.0023    0.1204    0.0027;
   -0.0004    0.0281    0.0003   -0.1904
];

_A1_F3 = [
    0.0077   -0.0391   -0.0161   -0.0084   -0.5257   -0.0869   -0.3074   -1.8549   -0.0004   -0.0238    0.4568;
    0.0911    0.0046    0.0139   -0.0438    0.0563   -1.0585   -2.0998   -0.1393   -0.0161    0.0035   -0.0297;
   -0.0070   -0.0013   -0.0002   -0.0061   -0.0010    0.4615   -0.0827   -0.0360   -0.0616   -0.0022    0.0099;
    0.0008   -0.0328   -0.0064    0.0010   -0.1447    0.0029    0.0273   -0.0553   -0.0004    0.0044    0.2529
];
_A1_G3 = [
   -0.0081    0.0502   -0.0013    0.5296;
   -0.1042   -0.0057    0.0171   -0.0420;
    0.0292    0.0013    0.1252    0.0025;
   -0.0002    0.0367    0.0010   -0.1318
];

_A1_F4 = [
    0.0078   -0.0221   -0.0148   -0.0103   -0.4204   -0.1068   -0.3403   -1.7533   -0.0012   -0.0236    0.4100;
    0.0858    0.0039    0.0142   -0.0528    0.0482   -1.1837   -2.3483   -0.1614   -0.0215    0.0038   -0.0320;
   -0.0185   -0.0006    0.0003   -0.0074   -0.0005    0.5643   -0.1049   -0.0279   -0.0564   -0.0019    0.0046;
    0.0006   -0.0360   -0.0060    0.0010   -0.1520    0.0049    0.0286   -0.0271   -0.0004    0.0063    0.3453
];
_A1_G4 = [
   -0.0086    0.0301   -0.0012    0.5829;
   -0.1060   -0.0048    0.0251   -0.0466;
    0.0383    0.0006    0.1251    0.0003;
   -0.0002    0.0403    0.0014   -0.0795
];


%% --------------------- F, G in A2() ----------------------
_A2_F1 = [
    0.0018,   -0.0504,   -0.0159,    0.0080,   -0.6515,    0.0306,    0.0037,   -0.7113,   -0.0000,    0.0000,   -0.0000;
    0.0564,   -0.0014,   -0.0010,   -0.0367,   -0.0383,   -0.6975,   -0.7697,   -0.1069,   -0.0000,   -0.0000,    0.0000;
    0.0000,   -0.0000,   -0.0000,    0.0000,   -0.0000,   -0.0000,    0.0000,   -0.0000,   -0.0226,    0.0000,   -0.0002;
    0.0000,   -0.0000,   -0.0000,    0.0000,   -0.0000,    0.0000,    0.0000,   -0.0000,   -0.0007,    0.0028,   -0.0038
];

_A2_F1 = [
	0.0016,	-0.0791,  -0.0284,   0.01533,  -1.0284,   0.08235,  -0.00004,	-1.2383,  0,	0,	0;
	0.0624,	 0.00417, -0.00216, -0.042217,	0.00568, -0.74915,  -0.87995,	-0.10615, 0,	0,	0;
	0,	 0,	0,	0,	0,	0,	0,	0,	-0.02199,	-0.00027,	0.000135;
	0,	 0,	0,	0,	0,	0,	0,	0,	-0.000224, 	 0.00379,      -0.005334
];
_A2_G1 = [
    0.0028,    0.0746,    0.0000,   -0.0000;
   -0.0733,    0.0073,    0.0000,    0.0000;
   -0.0000,    0.0000,    0.1098,    0.0069;
    0.0000,    0.0000,   -0.0018,   -0.2522
];

_A2_F2 = [
	0.00176,  -0.07939, -0.028545, 0.01591, -1.03144,  0.093861, 0.01017,  -1.242717, 0,  0,  0;
	0.05224,   0.00514, -0.000353, -0.03747,  0.020038, -0.68726, -0.77611, -0.060652, 0,  0,  0;
	0,	0,	0,	0,	0,	0,	0,	0,	-0.02199,  -0.00027,  0.00013;
	0,	0,	0,	0,	0,	0,	0,	0,	-0.00022,   0.00379, -0.00533
];
_A2_G2 = [
    0.0028,    0.0746,    0.0000,   -0.0000;
   -0.0733,    0.0073,    0.0000,    0.0000;
   -0.0000,    0.0000,    0.1098,    0.0069;
    0.0000,    0.0000,   -0.0018,   -0.2522
];

_A2_F3 = [
	0.0016,	-0.0791,  -0.0284,   0.01533,  -1.0284,   0.08235,  -0.00004,	-1.2383,  0,	0,	0;
	0.0624,	 0.00417, -0.00216, -0.042217,	0.00568, -0.74915,  -0.87995,	-0.10615, 0,	0,	0;
	0,	 0,	0,	0,	0,	0,	0,	0,	-0.045137,	-0.00027,	0.000135;
	0,	 0,	0,	0,	0,	0,	0,	0,	-0.000224, 	 0.00379,      -0.005334
];
_A2_G3 = [
    0.0028,    0.0746,    0.0000,   -0.0000;
   -0.0733,    0.0073,    0.0000,    0.0000;
   -0.0000,    0.0000,    0.0677,    0.0069;
    0.0000,    0.0000,   -0.0018,   -0.2522
];

_A2_F4 = [
	0.0020   -0.0166   -0.0168    0.0045   -0.5251   -0.0555   -0.1243   -0.7657		0		0		0;
	0.0270   -0.0054   -0.0028   -0.0328   -0.0936   -0.6764   -0.7162   -0.1699		0		0		0;
	0		0		0		0		0		0		0		0		-0.1861   -0.0032    0.0000;
	0		0		0		0		0		0		0		0		0.0280    0.1509    0.0021
];
_A2_G4 = [
	-0.0007    0.0373		0		0;
	-0.0363    0.0121		0		0;
	0			0		0.2733    0.0100;
	0			0		-0.0305   -0.2479
];

_A2_F5 = [
	0.0019   -0.1679   -0.0484    0.0074   -1.9265   -0.2098   -0.3346   -2.1372		0		0		0;
	0.0816   -0.0484   -0.0089   -0.0537   -0.4031   -1.0753   -1.1779   -0.4779		0		0		0;
	0		0		0		0		0		0		0		0		-0.1861   -0.0032    0.0000	;
	0		0		0		0		0		0		0		0		0.0280    0.1509    0.0021
];
_A2_G5 = [
	-0.0033    0.2331		0			0;
	-0.0980    0.0650		0			0;
	0		0		0.2733    0.0100;
	0		0		-0.0305   -0.2479
];

_A2_F6 = [
	-0.0012   -0.1883   -0.1196    0.0145   -2.2448   -0.1843   -0.9958   -4.0073		0		0		0;
	0.0852   -0.0776   -0.0566   -0.1077   -0.7441   -1.1770   -2.2771   -1.2822		0		0		0;
	0		0		0		0		0		0		0		0		-0.1861   -0.0032    0.0000;
	0		0		0		0		0		0		0		0		0.0280    0.1509    0.0021
];

_A2_G6 = [
	0.0021    0.2667		0			0;
	-0.1019    0.1075		0			0;
	0			0		0.2733    0.0100;
	0			0		-0.0305   -0.2479
];

_A2_F7 = [
   0.0017   -0.1683   -0.0486    0.0081   -1.9336   -0.1974   -0.3227   -2.1444   0 0 0;
    0.0815   -0.0461   -0.0087   -0.0535   -0.3908   -1.0690   -1.1712   -0.4659  0 0 0;
        0       0  0 0 0    0       0        0         -0.0935   -0.0005    0.0027;
        0       0  0 0 0    0       0        0           0.0008    0.0364   -0.0481
];

_A2_G7 = [
 -0.0029    0.2335   0 0;
-0.0978    0.0632 0 0;
     0          0     0.1371    0.0066;
     0          0   -0.0020   -0.2748
];

_A2_F8 = [
          0   -0.0240   -0.0157    0.0169   -0.3015    0.0404   -0.1042   -1.3900  0 0 0;
    0.0363         0   -0.0168   -0.0239   -0.0302   -0.3952   -0.6094   -0.2462 0 0 0;
        0       0  0 0 0    0       0        0         -0.0418         0         0;
        0       0  0 0 0    0       0        0           0   -0.1900         0
];

_A2_G8 = [
 0.0037    0.0384   0 0;
   -0.0401    0.0061 0 0;
     0          0     0.0854    0.0068;
     0          0   -0.0013   -0.0603
];

_A2_F_RPT = [
%    0.0018,   -0.0504,   -0.0159,    0.0080,   -0.6515,    0.0306,    0.0037,   -0.7113,   -0.0000,    0.0000,   -0.0000;
%    0.0564,   -0.0014,   -0.0010,   -0.0367,   -0.0383,   -0.6975,   -0.7697,   -0.1069,   -0.0000,   -0.0000,    0.0000;
%    0.0000,   -0.0000,   -0.0000,    0.0000,   -0.0000,   -0.0000,    0.0000,   -0.0000,   -0.0226,    0.0000,   -0.0002;
%    0.0000,   -0.0000,   -0.0000,    0.0000,   -0.0000,    0.0000,    0.0000,   -0.0000,   -0.0007,    0.0028,   -0.0038

%         0         0         0         0         0         0         0         0         0;
%   -1.0368   -0.0604   -0.0746   -0.0230   -0.0083   -0.0312   -2.6165   -0.2857    0.0499;
%    0.0760   -0.9970   -0.0169    0.0174   -0.0378    0.0026   -0.1130   -1.8340    0.0024;
%   -0.0002   -0.0185    0.2441   -0.0066    0.0004    0.0044    0.0990    0.0353    0.2295
 
        0         0         0         0         0         0         0         0         0;
   -1.0348   -0.0612   -0.0537   -0.0231   -0.0083   -0.0308   -2.6122   -0.2850    0.0651;
    0.0762   -0.9971   -0.0126    0.0173   -0.0377    0.0027   -0.1124   -1.8331    0.0039;
   -0.0046   -0.0163    0.1920   -0.0065    0.0004    0.0038    0.0926    0.0338    0.1870
];

_A2_G_RPT = [
%    0.0028,    0.0746,    0.0000,   -0.0000;
%  -0.0733,    0.0073,    0.0000,    0.0000;
%   -0.0000,    0.0000,    0.1098,    0.0069;
%    0.0000,    0.0000,   -0.0018,   -0.2522

%    0.0004    0.0018    0.0491         0;
%   -0.0062    0.1059   -0.0037    0.0746;
%   -0.1019   -0.0077    0.0009    0.0169;
%   -0.0019    0.0000    0.0000   -0.2441

    0.0004    0.0018    0.0491         0;
   -0.0062    0.1058   -0.0037    0.0636;
   -0.1019   -0.0078    0.0009    0.0146;
   -0.0018    0.0003    0.0000   -0.2171
];

_A2_F_RPT1 = [
         0         0         0         0         0         0         0         0         0;
   -1.0340   -0.0615   -0.0449   -0.0231   -0.0083   -0.0307   -2.6104   -0.2847    0.0716;
    0.0763   -0.9972   -0.0108    0.0172   -0.0377    0.0028   -0.1122   -1.8327    0.0046;
   -0.0064   -0.0154    0.1687   -0.0065    0.0004    0.0035    0.0899    0.0331    0.1676
];

_A2_G_RPT1 = [
    0.0004    0.0018    0.0491         0;
   -0.0063    0.1057   -0.0037    0.0449;
   -0.1020   -0.0078    0.0009    0.0108;
   -0.0016    0.0007   -0.0000   -0.1687
];

_A6_F = [
    0.0018,   -0.0504,   -0.0159,    0.0080,   -0.6515,    0.0306,    0.0037,   -0.7113,   -0.0000,    0.0000,   -0.0000;
    0.0564,   -0.0014,   -0.0010,   -0.0367,   -0.0383,   -0.6975,   -0.7697,   -0.1069,   -0.0000,   -0.0000,    0.0000;
    0.0000,   -0.0000,   -0.0000,    0.0000,   -0.0000,   -0.0000,    0.0000,   -0.0000,   -0.0226,    0.0000,   -0.0002;
    0.0000,   -0.0000,   -0.0000,    0.0000,   -0.0000,    0.0000,    0.0000,   -0.0000,   -0.0007,    0.0028,   -0.0038
];

_A6_G = [
    0.0028,    0.0746,    0.0000,   -0.0000;
   -0.0733,    0.0073,    0.0000,    0.0000;
   -0.0000,    0.0000,    0.1098,    0.0069;
    0.0000,    0.0000,   -0.0018,   -0.2522
];

%_B5_F = [
%	-0.4225	0		0		-1.3	0		0;
%	0		-0.5625	0		0		-1.5	0;
%	0		0		-0.5625	0		0		-1.5
%];

%_B5_G = [
%	0.4225	0		0		1.3		0	0	1	0	0;
%	0		0.5625	0		0		1.5	0	0	1	0;
%	0		0		0.5625	0		0	1.5	0	0	1
%];

%_B5_G = [
%	0.35	0		0		1.3		0	0	1	0	0;
%	0		0.35	0		0		1.5	0	0	1	0;
%	0		0		0.35	0		0	1.5	0	0	1
%];

_B5_F = [
   -0.2916         0         0   -0.8424         0         0;
         0   -0.3844         0         0   -0.8680         0;
         0         0   -0.6162         0         0   -1.7270
];

_B5_G = [
    0.2916         0         0    0.8424         0         0    	1     0    0;
         0    0.3844         0         0    0.8680         0         0    1    0;
         0         0    0.6162         0         0    1.7270         0    0    1
];

_B5_F1 = [
   -0.2916         0         0   -0.9720         0         0;
         0   -0.3844         0         0   -1.0540         0;
         0         0   -0.6162         0         0   -1.7270
];

_B5_G1 = [
   0.2916         0         0    0.9720         0         0    1.0000         0         0;
         0    0.3844         0         0    1.0540         0         0    1.0000         0;
         0         0    0.6162         0         0    1.7270         0         0    1.0000
];


_B5_F2 = [
   -0.2916         0         0   -1.0800         0         0;
         0   -0.3844         0         0   -1.2400         0;
         0         0   -0.6162         0         0   -1.7270
];

_B5_G2 = [
    0.2916         0         0    1.0800         0         0    1.0000         0         0;
         0    0.3844         0         0    1.2400         0         0    1.0000         0;
         0         0    0.6162         0         0    1.7270         0         0    1.0000
];


_A3_F1 = [
            	0,   	-0.025406,   	-0.011584,    		0,   	 -0.29854,   0.020091,  -0.043747,   -0.4926,         0,         0,         0 ;
       0.036367, 		     	0,   		  	0,  -0.024555,   		   	0,   -0.39641,   -0.51291, -0.090302,         0,         0,         0 ;
            	0,         		0,         		0, 	        0,         		0,         	0,         	0,         0, -0.041808,         0,         0 ;
     		    0,         		0,         		0,         	0,         		0,         	0,         	0,         0,         0,   -0.1900,         0
];

_A3_G1 = [
      0.0047427,    0.038569,         0,         0 ;
      -0.047829,    0.004787,         0,         0 ;
              0,       	   0,  0.085396, 0.0068375 ;
              0,           0,-0.0012557, -0.060292
];

_A3_N1 = [
            0,    0.088431,    0.043326,   -0.021898,    1.2818,   -0.039992,    0.14221,    1.8863,         0,         0,         0 ;
    -0.087802,           0,    	      0,    0.058947,  0.037009,     0.95541,     1.2448,    0.2565,         0,         0,         0 ;
            0,           0,           0,           0,         0,           0,          0,         0,  0.058672,         0,         0 ;
            0,           0,           0,           0,         0,           0,          0,         0,         0, -0.086388,   0.21161
];

_A3_Ge1 = [
       	  1.0000,          0,       	0,         0 ;
               0,     1.0000,       	0,         0 ;
               0,          0,       	0,         0 ;
               0,          0,       	0,         0 ;
      -0.0011241,   0.030638,           0,         0 ;
       -0.017467, -0.0020844,           0,         0 ;
      -0.0007112,  0.0020844,           0,         0 ;
       0.0011241,  0.0010975,           0,         0 ;
            	 0,          0,    1.0000,         0 ;
            	 0,          0,         0,    1.0000 ;
            	 0,          0, 	0,   0.24741
];

_A3_be1 = [ 0.42, 0.5, 0, 1.7 ];

_A3_al1 = [ 0.25, 0.25, 0.25, 0.25 ];

_B3_kx1 = -0.4;
_B3_ky1 = -0.4;
_B3_kz1 = -0.5;
_B3_kc1 = -3;

_A3_F2 = [
            	0,   	-0.025406,   	-0.011584,    		0,   	 -0.29854,   0.020091,  -0.043747,   -0.4926,         0,         0,         0 ;
         0.036367,	     	0,   		0,      -0.024555,	   	0,   -0.39641,   -0.51291, -0.090302,         0,         0,         0 ;
            	0,     		0,         	0, 	        0,     		0,          0,         	0,         0, -0.041808,         0,         0 ;
     		0,     		0,         	0,         	0,     		0,          0,         	0,         0,         0,   -0.1900,         0
];

_A3_G2 = [
      0.0047427,    0.038569,         0,         0 ;
      -0.047829,    0.004787,         0,         0 ;
              0,           0,         0.085396,  0.0068375 ;
              0,           0,         -0.0012557,-0.060292
];

_A3_N2 = [
            0,    0.088431,    0.043326,   -0.021898,    1.2818,   -0.039992,    0.14221,    1.8863,         0,         0,         0 ;
    -0.087802,           0,    	      0,    0.058947,  0.037009,     0.95541,     1.2448,    0.2565,         0,         0,         0 ;
            0,           0,           0,           0,         0,           0,          0,         0,  0.058672,         0,         0 ;
            0,           0,           0,           0,         0,           0,          0,         0,         0, -0.086388,   0.21161
];

_A3_Ge2 = [
       	    1.0000,         0,         		0,         0 ;
          	 0,    1.0000,         		0,         0 ;
                 0,         0,         		0,         0 ;
                 0,    	    0,         		0,         0 ;
        -0.0011241,  0.030638,         	        0,         0 ;
         -0.017467,  -0.0020844,         	0,         0 ;
      -0.0007112,    0.0020844,         	0,         0 ;
       0.0011241,    0.0010975,         	0,         0 ;
            	 0,         0,    	   1.0000,         0 ;
            	 0,         0,   	  -0.0000,    1.0000 ;
            	 0,         0,   	  -0.0000,    0.24741
];

_A3_be2 = [ 0.42, 0.5, 0, 1.7 ];

_A3_al2 = [ 0.25, 0.25, 0.25, 0.25 ];

_B3_kx2 = -0.3;
_B3_ky2 = -0.3;
_B3_kz2 = -0.3;
_B3_kc2 = -0.6;

_A3_F3 = [
            	0,   	 -0.02405,   	-0.015685,    0.01694,   	  -0.3015,   0.040431,    -0.1042,     -1.39,         0,         0,         0 ;
       0.036318, 		     	0,      -0.016806,  -0.023859,      -0.030161,    -0.3952,   -0.60941,  -0.24618,         0,         0,         0 ;
            	0,         		0,         		0, 	        0,         		0,         	0,         	0,         0, -0.041808,         0,         0 ;
     		    0,         		0,         		0,         	0,         		0,         	0,         	0,         0,         0,   -0.1900,         0
];

_A3_G3 = [
      0.0057904,    0.038457,         0,         0 ;
      -0.047686,   0.0060858,         0,         0 ;
             	0,         	 0,  0.085396, 0.0068375 ;
              0,           0,-0.0012557, -0.060292
];

_A3_N3 = [
            0,    0.083825,    0.055432,   -0.058404,    1.2808,    -0.13702,     0.3532,    4.7897,         0,         0,         0 ;
    -0.087343,           0,    0.044467,    0.057318,  0.087729,     0.95027,     1.5038,   0.67597,         0,         0,         0 ;
            0,           0,           0,           0,         0,           0,          0,         0,  0.058672,         0,         0 ;
            0,           0,           0,           0,         0,           0,          0,         0,         0, -0.086388,   0.21161
];

_A3_Ge3 = [
       	1.0000,         0,         		0,         0 ;
          	 0,    1.0000,         		0,         0 ;
               0,         0,         		0,         0 ;
               0,        	0,         		0,         0 ;
      -0.0011241,    	0.030638,         	0,         0 ;
       -0.017467,   -0.0020844,         	0,         0 ;
      -0.0007112,    0.0020844,         	0,         0 ;
       0.0011241,    0.0010975,         	0,         0 ;
            	 0,         0,    	   1.0000,         0 ;
            	 0,         0,   	  -0.0000,    1.0000 ;
            	 0,         0,   	  -0.0000,    0.24741
];

_A3_be3 = [ 0.42, 0.5, 0, 1.7 ];

_A3_al3 = [ 0.25, 0.25, 0.25, 0.25 ];

_B3_kx3 = -0.4;
_B3_ky3 = -0.4;
_B3_kz3 = -0.5;
_B3_kc3 = -1.5;

_A3_F4 = [
            	0,   	 -0.02405,   	-0.015685,    0.01694,   	  -0.3015,   0.040431,    -0.1042,     -1.39,         0,         0,         0 ;
       0.036318, 		     	0,      -0.016806,  -0.023859,      -0.030161,    -0.3952,   -0.60941,  -0.24618,         0,         0,         0 ;
            	0,         		0,         		0, 	        0,         		0,         	0,         	0,         0, -0.041808,         0,         0 ;
     		    0,         		0,         		0,         	0,         		0,         	0,         	0,         0,         0,   -0.1900,         0
];

_A3_G4 = [
      0.0057904,    0.038457,         0,         0 ;
      -0.047686,   0.0060858,         0,         0 ;
             	0,         	 0,  0.085396, 0.0068375 ;
              0,           0,-0.0012557, -0.060292
];

_A3_N4 = [
            0,    0.083825,    0.055432,   -0.058404,    1.2808,    -0.13702,     0.3532,    4.7897,         0,         0,         0 ;
    -0.087343,           0,    0.044467,    0.057318,  0.087729,     0.95027,     1.5038,   0.67597,         0,         0,         0 ;
            0,           0,           0,           0,         0,           0,          0,         0,  0.058672,         0,         0 ;
            0,           0,           0,           0,         0,           0,          0,         0,         0, -0.086388,   0.21161
];

_A3_Ge4 = [
       	1.0000,         0,         		0,         0 ;
          	 0,    1.0000,         		0,         0 ;
               0,         0,         		0,         0 ;
               0,        	0,         		0,         0 ;
      -0.0011241,    	0.030638,         	0,         0 ;
       -0.017467,   -0.0020844,         	0,         0 ;
      -0.0007112,    0.0020844,         	0,         0 ;
       0.0011241,    0.0010975,         	0,         0 ;
            	 0,         0,    	   1.0000,         0 ;
            	 0,         0,   	  -0.0000,    1.0000 ;
            	 0,         0,   	  -0.0000,    0.24741
];

_A3_be4 = [ 0.42, 0.5, 0, 1.7 ];

_A3_al4 = [ 0.25, 0.25, 0.25, 0.25 ];

_B3_kx4 = -0.4;
_B3_ky4 = -0.4;
_B3_kz4 = -0.5;
_B3_kc4 = -3;

_A3_F5 = [
            	0,   	 -0.02405,   	-0.015685,    0.01694,   	  -0.3015,   0.040431,    -0.1042,     -1.39,         0,         0,         0 ;
       0.036318, 		     	0,      -0.016806,  -0.023859,      -0.030161,    -0.3952,   -0.60941,  -0.24618,         0,         0,         0 ;
            	0,         		0,         		0, 	        0,         		0,         	0,         	0,         0, -0.041808,         0,         0 ;
     		    0,         		0,         		0,         	0,         		0,         	0,         	0,         0,         0,   -0.1900,         0
];

_A3_G5 = [
      0.0057904,    0.038457,         0,         0 ;
      -0.047686,   0.0060858,         0,         0 ;
             	0,         	 0,  0.085396, 0.0068375 ;
              0,           0,-0.0012557, -0.060292
];

_A3_N5 = [
            0,    0.083825,    0.055432,   -0.058404,    1.2808,    -0.13702,     0.3532,    4.7897,         0,         0,         0 ;
    -0.087343,           0,    0.044467,    0.057318,  0.087729,     0.95027,     1.5038,   0.67597,         0,         0,         0 ;
            0,           0,           0,           0,         0,           0,          0,         0,  0.058672,         0,         0 ;
            0,           0,           0,           0,         0,           0,          0,         0,         0, -0.086388,   0.21161
];

_A3_Ge5 = [
       	1.0000,         0,         		0,         0 ;
          	 0,    1.0000,         		0,         0 ;
               0,         0,         		0,         0 ;
               0,        	0,         		0,         0 ;
      -0.0011241,    	0.030638,         	0,         0 ;
       -0.017467,   -0.0020844,         	0,         0 ;
      -0.0007112,    0.0020844,         	0,         0 ;
       0.0011241,    0.0010975,         	0,         0 ;
            	 0,         0,    	   1.0000,         0 ;
            	 0,         0,   	  -0.0000,    1.0000 ;
            	 0,         0,   	  -0.0000,    0.24741
];

_A3_be5 = [ 0.42, 0.5, 0, 1.7 ];

_A3_al5 = [ 0.25, 0.25, 0.25, 0.25 ];

_B3_kx5 = -0.3;
_B3_ky5 = -0.3;
_B3_kz5 = -0.3;
_B3_kc5 = -0.6;

% A5 control
% group 1 (actually group 10)

_A5_F11 = [
	-1.2780e-003, -6.0125e-002, -5.7422e-001,  4.7936e-002, -1.2921e-003,  2.8096e-002,  -2.6050e-001, -3.4751e+000 ;
	 7.2636e-002, -1.9106e-003, -7.3331e-002, -6.6353e-001, -3.5204e-002, -1.6898e-002,  -1.2188e+000, -4.9236e-001
];

_A5_G11 = [
	 9.1255e-003,  8.5518e-002 ;
	-8.8897e-002,  1.0300e-002
];

_A5_K11 = [
	8.1020e-002,  6.8617e+000 ;
	4.3195e+000, -1.3462e+000
];

_A5_L11 = [
	 3.1134e-003, -6.3667e-004,  5.1230e-003,  2.6859e-002,  1.3488e-003,  6.4642e-003, 0, 0 ;
	-1.8241e-003, -5.1269e-003,  4.3503e-002, -1.3436e-002,  9.1842e-003, -3.5894e-003, 0, 0
];

_A5_M11 = [
	-3.5884e-003,  7.3766e-004 ;
	 2.0099e-003,  6.4879e-003
];

A5_al11 = 0.1;
A5_al21 = 0.1;
A5_be11 = 1;
A5_be21 = 0.6;

_A5_P11 = [
	-5.7888e-003, -1.1821e-001 ;
	 1.1702e-001, -1.1573e-003
];

_A5_Q11 = [
	 4.6647e-003,  1.4885e-001 ;
	-1.3449e-001, -9.2709e-004
];

_A5_F41 = [
	-5.2265e-002,            0,  6.8375e-003,            0 ;
	-3.9388e-003,  1.7122e-002, -8.4666e-002, -6.2792e-001
];

_A5_G41 = [
	9.5852e-002,            0 ;
	2.6831e-003, -1.7122e-002
];

_A5_K41 = [
	0,            0,            0,  0 ;
	0, -1.7122e-002, -2.8536e-002,  0
];

_A5_M41 = [
	0, 0 ;
	0, 1 ;
	0, 0 ;
	0, 0
];

A5_al41 = 0.1;
A5_be41 = 1;

%group 2
_A5_F12 = [
	1.6701e-003,  5.7280e-004, -1.4312e-002,  8.3658e-003,  3.9596e-001, -2.3306e-002, -1.9567e-002,  9.7648e-001 ;
	2.0987e-003,  4.1076e-003, -4.5597e-003, -2.7861e-002, -9.4214e-003,  3.7069e-001,  8.0963e-001, -1.7930e+000
];

_A5_G12 = [
	 1.2830e-003,  2.1949e-003 ;
	-4.2728e-003,  6.9929e-004
];

_A5_K12 = [
	6.3607e-003, -3.7181e-003 ;
	2.0265e-003,  1.2382e-002
];

_A5_L12 = [
	 2.5293e-003,  2.7613e-001,	2.25,     0,  2.5,    0, 0, 0 ;
	-3.0577e-001,  4.6898e-003,      0,  2.25,    0,  2.5, 0, 0
];

_A5_M12 = [
	           0,  3.4507e-001 ;
	-3.4507e-001,            0
];

A5_al12 = 0.1;
A5_al22 = 0.1;
A5_be12 = 1.25;
A5_be22 = 1.25;

_A5_P12 = [
	-1.1241e-003, -1.2272e-001 ;
	 1.3590e-001, -2.0844e-003
];

_A5_Q12 = [
	           0,  1.5336e-001 ;
	-1.5336e-001,            0   
];

_A5_F42 = [
	-7.1435e-002,            0,  6.8375e-003,            0 ;
	-4.4754e-003,  5.5470e-002, -1.6877e-001, -3.9541e-002
];

_A5_G42 = [
	1.1502e-001,            0 ;
	3.2197e-003, -5.5470e-002
];

_A5_K42 = [
	0,            0,            0,            0 ;
	0, -9.0139e-002, -8.9283e-002,  2.1000e-001
];

_A5_M42 = [
	0, 0 ;
	0, 1 ;
	0, 0 ;
	0, 0
];

A5_al42 = 0.25;
A5_be42 = 2.2;

%group 3
_A5_F13 = [
	2.0978e-003,  1.3044e-003, -1.4312e-002,  8.3658e-003,  3.9596e-001, -2.3306e-002, -1.9567e-002,  9.7648e-001 ;
	6.7441e-004,  4.3407e-003, -4.5597e-003, -2.7861e-002, -9.4214e-003,  3.7069e-001,  8.0963e-001, -1.7930e+000
];

_A5_G13 = [
	 8.5534e-004,  1.4632e-003 ;
	-2.8485e-003,  4.6619e-004
];

_A5_K13 = [
	6.3607e-003, -3.7181e-003 ;
	2.0265e-003,  1.2382e-002
];

_A5_L13 = [
	 2.5293e-003, 1.6111e-001, 2.25,     0,  2.5,    0, 0, 0 ;
	-1.9074e-001, 4.6898e-003,    0,  2.25,    0,  2.5, 0, 0
];

_A5_M13 = [
	           0,  2.3004e-001 ;
	-2.3004e-001,            0
];

A5_al13 = 0.1;
A5_al23 = 0.1;
A5_be13 = 1.25;
A5_be23 = 1.25;

_A5_P13 = [
	-1.1241e-003, -7.1604e-002 ;
	 8.4775e-002, -2.0844e-003
];

_A5_Q13 = [
	           0,  1.0224e-001 ;
	-1.0224e-001,            0
];

_A5_F43 = [
	-7.1435e-002,            0,  6.8375e-003,            0 ;
	-4.4754e-003,  5.5470e-002, -1.6877e-001, -3.9541e-002
];

_A5_G43 = [
	1.1502e-001,            0 ;
	3.2197e-003, -5.5470e-002
];

_A5_K43 = [
	0,            0,            0,            0 ;
	0, -9.0139e-002, -8.9283e-002,  2.1000e-001
];

_A5_M43 = [
	0, 0 ;
	0, 1 ;
	0, 0 ;
	0, 0
];

A5_al43 = 0.25;
A5_be43 = 2.2;

%group 4
_A5_F14 = [
	2.0978e-003,  1.3044e-003, -1.4312e-002,  8.3658e-003,  3.9596e-001, -2.3306e-002, -1.9567e-002,  9.7648e-001 ;
	6.7441e-004,  4.3407e-003, -4.5597e-003, -2.7861e-002, -9.4214e-003,  3.7069e-001,  8.0963e-001, -1.7930e+000
];

_A5_G14 = [
	 8.5534e-004,  1.4632e-003 ;
	-2.8485e-003,  4.6619e-004
];

_A5_K14 = [
	6.3607e-003, -3.7181e-003 ;
	2.0265e-003,  1.2382e-002
];

_A5_L14 = [
	 2.5293e-003, 1.6111e-001, 2.25,     0,  2.5,    0, 0, 0 ;
	-1.9074e-001, 4.6898e-003,    0,  2.25,    0,  2.5, 0, 0
];

_A5_M14 = [
	           0,  2.3004e-001 ;
	-2.3004e-001,            0
];

A5_al14 = 0.1;
A5_al24 = 0.1;
A5_be14 = 1.25;
A5_be24 = 1.25;

_A5_P14 = [
	-1.1241e-003, -7.1604e-002 ;
	 8.4775e-002, -2.0844e-003
];

_A5_Q14 = [
	           0,  1.0224e-001 ;
	-1.0224e-001,            0
];

_A5_F44 = [
	-7.1435e-002,            0,  6.8375e-003,            0 ;
	-4.4754e-003,  6.9337e-002, -1.6877e-001, -5.0952e-002
];

_A5_G44 = [
	1.1502e-001,            0 ;
	3.2197e-003, -6.9337e-002
];

_A5_K44 = [
	0,            0,            0,            0 ;
	0, -7.2111e-002, -8.3146e-002,  1.8777e-001
];

_A5_M44 = [
	0, 0 ;
	0, 1 ;
	0, 0 ;
	0, 0
];

A5_al44 = 0.25;
A5_be44 = 2.2;

%group 5
_A5_F15 = [
	 2.3194e-003,  1.6122e-003, -9.9386e-003,  5.8096e-003,  3.9692e-001, -2.3864e-002, -1.9567e-002,  9.7648e-001 ;
	-4.5716e-005,  4.4582e-003, -3.1665e-003, -1.9348e-002, -9.1174e-003,  3.7255e-001,  8.0963e-001, -1.7930e+000
];

_A5_G15 = [
	 5.9398e-004,  1.0161e-003 ;
	-1.9781e-003,  3.2375e-004
];

_A5_K15 = [
	6.3607e-003, -3.7181e-003 ;
	2.0265e-003,  1.2382e-002
];

_A5_L15 = [
	 1.7564e-003,  1.1188e-001,  1.5625,       0,  2.0833,       0, 0, 0 ;
	-1.3246e-001,  3.2568e-003,       0,  1.5625,       0,  2.0833, 0, 0
];

_A5_M15 = [
	           0,  1.5975e-001 ;
	-1.5975e-001,            0
];

A5_al15 = 0.1;
A5_al25 = 0.1;
A5_be15 = 1.25;
A5_be25 = 1.25;

_A5_P15 = [
	-1.1241e-003, -7.1604e-002 ;
	 8.4775e-002, -2.0844e-003
];

_A5_Q15 = [
	           0,  1.0224e-001 ;
	-1.0224e-001,            0
];

_A5_F45 = [
	-7.1435e-002,            0,  6.8375e-003,            0 ;
	-4.4754e-003,  6.9337e-002, -1.6534e-001, -5.0952e-002
];

_A5_G45 = [
	1.1502e-001,            0 ;
	3.2197e-003, -6.9337e-002
];

_A5_K45 = [
	0,            0,            0,            0 ;
	0, -7.2111e-002, -8.3146e-002,  1.8777e-001
];

_A5_M45 = [
	0, 0 ;
	0, 1 ;
	0, 0 ;
	0, 0
];

A5_al45 = 0.25;
A5_be45 = 2.2;

%group 6
_A5_F16 = [
	 3.3864e-003,  1.8767e-003, -1.4032e-002,  7.7832e-003,  3.9495e-001, -2.2917e-002, 0, 0 ;
	-2.5088e-003,  6.4221e-003,  3.2147e-003, -2.9477e-002, -6.0544e-003,  3.6769e-001, 0, 0
];

_A5_G16 = [
	 6.6856e-004,  1.9121e-003 ;
	-2.2768e-003, -2.1369e-003
];

_A5_K16 = [
	 8.9802e-003, -4.9812e-003 ;
	-2.0574e-003,  1.8865e-002
];

_A5_L16 = [
	 9.7441e-003,  1.1188e-001,  1.5625,       0,  2.0833,       0, 0, 0 ;
	-9.2523e-002, -9.2595e-002,       0,  1.5625,       0,  2.0833, 0, 0
];

_A5_M16 = [
	 7.9877e-003,  1.5975e-001 ;
	-1.1982e-001, -9.5852e-002
];

A5_al16 = 0.1;
A5_al26 = 0.1;
A5_be16 = 1.25;
A5_be26 = 1.25;

_A5_P16 = [
	-6.2362e-003, -7.1604e-002 ;
	 5.9215e-002,  5.9261e-002
];

_A5_Q16 = [
	 5.1121e-003,  1.0224e-001 ;
	-7.6682e-002, -6.1345e-002
];

_A5_F46 = [
	-7.1435e-002,            0,  6.8375e-003,            0 ;
	-4.4754e-003,  6.8487e-002, -7.4393e-002, -6.2792e-001
];

_A5_G46 = [
	1.1502e-001,            0 ;
	3.2197e-003, -6.9337e-002
];

_A5_K46 = [
	0,            0,            0,  0 ;
	0, -6.8487e-002, -5.7072e-002,  0
];

_A5_M46 = [
	0, 0 ;
	0, 1 ;
	0, 0 ;
	0, 0
];

A5_al46 = 0.1;
A5_be46 = 1.3068;

%group 7
_A5_F17 = [
	 3.6969e-003,  2.5981e-003, -8.9802e-003,  4.9812e-003,  3.9630e-001, -2.3664e-002, 0, 0 ;
	-3.4421e-003,  5.3035e-003,  2.0574e-003, -1.8865e-002, -6.3630e-003,  3.7052e-001, 0, 0
];


_A5_G17 = [
	 3.1476e-004,  1.0301e-003 ;
	-1.1594e-003, -9.6084e-004
];

_A5_K17 = [
	 8.9802e-003, -4.9812e-003 ;
	-2.0574e-003,  1.8865e-002
];

_A5_L17 = [
	 2.1465e-003,  6.1379e-002,  1,  0,  1.6667,       0, 0, 0 ;
	-4.3879e-002, -3.8813e-002,  0,  1,       0,  1.6667, 0, 0
];

_A5_M17 = [
	 1.0224e-003,  9.2018e-002 ;
	-6.1345e-002, -4.0897e-002
];

A5_al17 = 0.1;
A5_al27 = 0.1;
A5_be17 = 1.25;
A5_be27 = 1.25;

_A5_P17 = [
	-2.1465e-003, -6.1379e-002 ;
	 4.3879e-002,  3.8813e-002
];

_A5_Q17 = [
	 1.0224e-003,  9.2018e-002 ;
	-6.1345e-002, -4.0897e-002
];

_A5_F47 = [
	-7.1435e-002,            0,  6.8375e-003,            0 ;
	-4.4754e-003,  1.7122e-002, -8.4666e-002, -6.2792e-001
];

_A5_G47 = [
	1.1502e-001,            0 ;
	3.2197e-003, -1.7122e-002
];

_A5_K47 = [
	0,            0,            0,  0 ;
	0, -1.7122e-002, -2.8536e-002,  0
];

_A5_M47 = [
	0, 0 ;
	0, 1 ;
	0, 0 ;
	0, 0
];

A5_al47 = 0.1;
A5_be47 = 1.25;

%group 8
_A5_F18 = [
	 3.6969e-003,  2.6490e-003, -8.9802e-003,  4.9812e-003,  3.9630e-001, -2.3664e-002, 0, 0 ;
	-3.4421e-003,  5.1107e-003,  2.0574e-003, -1.8865e-002, -6.3630e-003,  3.7052e-001, 0, 0
];

_A5_G18 = [
	 3.1476e-004,  9.7913e-004 ;
	-1.1594e-003, -7.6796e-004
];

_A5_K18 = [
	 8.9802e-003, -4.9812e-003 ;
	-2.0574e-003,  1.8865e-002
];

_A5_L18 = [
	 2.1465e-003,  6.1379e-002,  1,  0,  1.6667,       0, 0, 0 ;
	-4.3879e-002, -2.8588e-002,  0,  1,       0,  1.6667, 0, 0
];

_A5_M18 = [
	 1.0224e-003,  9.2018e-002 ;
	-6.1345e-002, -3.0673e-002
];

A5_al18 = 0.1;
A5_al28 = 0.1;
A5_be18 = 1.25;
A5_be28 = 1.25;

_A5_P18 = [
	-2.1465e-003, -6.1379e-002 ;
	 4.3879e-002,  2.8588e-002
];

_A5_Q18 = [
	 1.0224e-003,  9.2018e-002 ;
	-6.1345e-002, -3.0673e-002
];

_A5_F48 = [
	-7.1435e-002,            0,  6.8375e-003,            0 ;
	-4.4754e-003,  9.6310e-003, -8.7234e-002, -6.2792e-001
];

_A5_G48 = [
	1.1502e-001,            0 ;
	3.2197e-003, -9.6310e-003
];

_A5_K48 = [
	0,            0,            0,  0 ;
	0, -9.6310e-003, -2.1402e-002,  0
];

_A5_M48 = [
	0, 0 ;
	0, 1 ;
	0, 0 ;
	0, 0
];

A5_al48 = 0.1;
A5_be48 = 1.25;

%group 9
_A5_F19 = [
	 3.7488e-003,  3.0901e-003, -5.0514e-003,  2.8019e-003,  3.9495e-001, -2.2917e-002, 0, 0 ;
	-3.5904e-003,  4.4821e-003,  1.1573e-003, -1.0612e-002, -6.0544e-003,  3.6769e-001, 0, 0
];

_A5_G19 = [
	 2.2918e-004,  4.1317e-004 ;
	-8.6797e-004, -9.4658e-005
];

_A5_K19 = [
	 8.9802e-003, -4.9812e-003 ;
	-2.0574e-003,  1.8865e-002
];

_A5_L19 = [
	 6.3232e-004,  2.8775e-002,  5.6250e-001,            0,  7.5000e-001,            0, 0, 0 ;
	-3.6184e-002,  1.1725e-003,            0,  5.6250e-001,            0,  7.5000e-001, 0, 0
];

_A5_M19 = [
	           0,  4.6009e-002 ;
	-4.6009e-002,            0
];

A5_al19 = 0.1;
A5_al29 = 0.1;
A5_be19 = 1.25;
A5_be29 = 1.25;

_A5_P19 = [
	-2.1465e-003, -6.1379e-002 ;
	 4.3879e-002,  2.8588e-002
];

_A5_Q19 = [
	 1.0224e-003,  9.2018e-002 ;
	-6.1345e-002, -3.0673e-002
];

_A5_F49 = [
	-3.3095e-002,            0,  6.8375e-003,            0 ;
	-3.4022e-003,  9.6310e-003, -8.7234e-002, -6.2792e-001
];

_A5_G49 = [
	7.6682e-002,            0 ;
	2.1465e-003, -9.6310e-003
];

_A5_K49 = [
	0,            0,            0,  0 ;
	0, -9.6310e-003, -1.2841e-002,  0
];

_A5_M49 = [
	0, 0 ;
	0, 1 ;
	0, 0 ;
	0, 0
];

A5_al49 = 0.1;
A5_be49 = 1.25;

%A7
_A7_F1 = [
	   0.0024432,    -0.043391,    -0.013061,    0.0066599,     -0.59617,     0.028781,     0.025575,     -0.58704,  -0.00014739,  6.6631e-006, -2.1086e-005 ;
	    0.056785,    0.0021549,    0.0031248,    -0.032149,   -0.0011387,     -0.68103,     -0.65347,   -0.0046159,  -0.00010816,  2.5325e-006, -2.1537e-006 ;
	-9.4513e-005,   -0.0008842,    0.0015519,    0.0038142,    -0.001857,    0.0032909,   -0.0019887,   -0.0039893,     -0.04659,   0.00014103,  -0.00052501 ;
	-2.0984e-005,  -0.00014053,  -0.00010573,    0.0007226,  -0.00026134,   0.00067435,   -0.0011884,   -0.0053071,     -0.00797,     0.036966,    -0.044759
];

_A7_G1 = [
	   0.0020024,     0.065647,   0.00014739, -1.4462e-006 ;
	   -0.073415,    0.0022729,   0.00010816, -1.9996e-006 ;
	  0.00042362,   -0.0018283,     0.090177,    0.0068257 ;
	 4.5164e-005,  8.0288e-005,    0.0067143,     -0.27618
];

_A7_Fr1 = [ 0.0011346, 0.0011228, 0.0017386, 0.0022948 ];
_A7_Gr1 = -0.26755;

_A7_be1 = -9.6;
%_A7_be2 = -5.6;
_A7_al1 = -1.05;
%_A7_al2 = -1.05;

_A7_Nr1 = [ -0.57322, -0.15577, -0.56971, -0.64566 ];
_A7_Ger1 = [ -0.055961, -0.021746, 0.0054145, 0.078507 ];

%observer
_Ad = [
	0.81716,	0,			0 		;
	0,		0.81088,	0 		;
	0,		0,			0.77877 
];

_Bd = [
	  0.0001404,   0.00010902,   -0.0026288,    -0.019026, -5.7002e-005, -7.0057e-005,  -0.00015819,  1.7979e-006,  0.00089826,     0.047492,  -0.00026297,            0 ;
	2.7611e-005,  5.8454e-006,    -0.019232,    0.0006204, -3.6023e-005,  2.0289e-005,  9.4736e-006, -1.0343e-007,    0.044977,    0.0031412,  1.5128e-005,            0 ;
	          0,            0,  -0.00019006,            0,            0,            0, -9.6975e-005,     0.053307,           0,            0,    0.0010964,    -0.039169 
];

_Cd = [
	1, 0, 0 ;
	0, 1, 0 ;
	0, 0, 1 
];

_Dd = [
	-0.00039551,	0.00032181,	0.014378,	0.0050076,	0,	0,	0.00092789,		0,	0,	0,	0,	0 ;
	0.00011497,	0.00020413,	0.0062859,	-0.0032804,	0,	0,	-5.3579e-005,	0,	0,	0,	0,	0 ;
	0,			0,			0,			0,			0,	0,	0,		-0.037899,	0,	0,	0,	0 
];

%observer
%dx = Ax+Bu
%x - (as, bs, rfb)
%u - (u, v, p, q, a, b, w, r, ea, ee, eu, er)

_Ae = [
  -10.0000   -0.0000    0.0000;
    0.0000  -10.0000   -0.0000;
   -0.0000   -0.0000  -12.0000
];

_Be = [
    0.2026    2.5878    0.0000   -0.0000   -0.0000   0   -0.0380   -1.2462   -0.0198;
    2.5878   -0.0663    0.0000   -0.0000   -0.0000   0   -1.1135   -0.0908   -0.0591;
         0         0    4.8913   -0.0000   -0.0000   0   -0.0061   -0.0011    0.0461
];

_Ce = [
     0     1     0;
     1     0     0;
     0     0     1
];

_De = [
     0         0         0    0.0000    0.0000         0    0.0113    0.0091    0.0059;
     0         0         0    0.0000    0.0000         0    0.0038    0.0248    0.0020;
     0         0         0    0.0000    0.0000         0   -0.0000   -0.0000    0.1051
];

%observer 0, same with discrete form
_Ae0 = [
	-10.0960,        0,	          0 ;
	       0,        -10.4818,        0 ;
               0,        0,               -12.5020 
];

_Be0 = [
    0.0078,    0.0060,   -0.1452,   -1.0506,   -0.0031,   -0.0039,   -0.0087,    0.0001,    0.0496,    2.6224,   -0.0145,         0, ;
    0.0015,    0.0003,   -1.0659,    0.0344,   -0.0020,    0.0011,    0.0005,   -0.0000,    2.4928,    0.1741,    0.0008,         0, ;
         0,         0,   -0.0107,         0,         0,         0,   -0.0055,    3.0124,         0,         0,    0.0620,   -2.2135, 
];

_Ce0 = [
	1, 0, 0 ;
	0, 1, 0 ;
	0, 0, 1 
];

_De0 = [
    -0.00039551,    0.00032181,    0.014378,     0.0050076,   0,   0,     0.00092789,           0, 0, 0, 0, 0 ;
     0.00011497,    0.00020413,   0.0062859,    -0.0032804,   0,   0,   -5.3579e-005,           0, 0, 0, 0, 0 ;
	      0,             0,	          0,             0,   0,   0,              0,   -0.037899, 0, 0, 0, 0 
];

% observer 1
_Ae1 = [
  -10.0000,   -0.0000    0.0000;
   -0.0000,  -10.0000    0.0000;
   -0.0000,   -0.0000  -12.0000
];
      
_Be1 = [ 
   0.00934697584739   0.00070883626253  -0.03810174795317  -1.24884599408382   0.00071178599230  -0.00917273648116   0.00135667668595     -0.01993193481492   0.20260000000000   2.57290175321674  -0.00499881497975  -0.00000000000000;
   0.00343434677707   0.00210397844406  -1.11416394942614  -0.09149857834578   0.00213346279484  -0.00337278773697   0.00178588639946     -0.05972188995036   2.57290175321674  -0.06630000000000  -0.04186150239705  -0.00000000000000;
  -0.00005664863343   0.04909544363627  -0.00756004421419   0.00000002317020   0.07080214199129  -0.00000215149874   0.03521820704410      0.04804542961784                  0                  0  -1.07856400593354   4.89131918298193];
   
_Ce1 = [
     1,     0,     0;
     0,     1,     0;
     0,     0,     1
];
     
_De1 = [
  	-0.00093780950010,  -0.00007283992542,   0.00381017479532,   0.02506519499360,     0,   0,  -0.00000034546646,      0.00199319348009,     0,     0,     0,    0;
  	-0.00034482468451,  -0.00021824966066,   0.01141639494261,   0.00921626189002,     0,   0,   0.00000093695937,      0.00597218899083,     0,     0,     0,    0;
  	-0.00000000000514,  -0.00724396346219,   0.00012323170950,   0.00000000013745,     0,   0,   0.00000459843893,      0.10491839517749,     0,     0,     0,    0
];


% observer 2
_Ae2 = [
	-265.0410,   -1.9938,    0.8599;
   1.8701, -541.8251,   21.8108;
    0.3547,   22.9515,  -70.0070
];

_Be2 = [
    0.2734    3.7348   -3.8533  -262.3892    0.0830   -0.0105   11.3987    1.0173    0.2026    2.5729    1.3729   -0.6264;
   -1.5566  132.9689 -504.1768    0.5771    2.0951    0.0295   31.1566 -140.5869    2.5729   -0.0663   -0.1293  -15.8879;
   -0.2923  -54.3842   24.8278    0.4815   -7.0072    0.0486   18.8922  -26.1934         0         0   -0.4327   47.1461
];

_Ce2 = [
     1     0     0;
     0     1     0;
     0     0     1
];

_De2 = [
   -0.0010   -0.0102    0.0074    0.9865         0         0   -0.0434   -0.0045         0         0         0         0;
    0.0031   -0.2170    0.9267    0.0023         0         0   -0.0694    0.2776         0         0         0         0;
    0.0052    0.7056   -0.0513   -0.0012         0         0   -0.2928    0.6431         0         0         0         0
];


_AeU = [ -1.8418, -1.6871, -0.88235;
		1, 0, -4.6214;
		0, 1, -3.0372
];

_BeU = [ 0.51462;
		2.6954;
		1.7714
];

_CeU = [ 1, 0, 0;
		 0, 1, 0;
		 0, 0, 1
];
_FU = [ -1.0856, -0.16444, -1.6131 ];
_FnU = [ 0.61285, 1.2941, 0.30996 ];
_GeU = [ 0; 0; 0.58324 ];

_AeV = [ -1.8415, -1.6884, -0.88105;
		 1, 0, -4.6205;
		 0, 1, -3.0376
];

_BeV = [ 0.9763;
		 5.1201;
		 3.366
];

_CeV = [ 1, 0, 0;
		 0, 1, 0;
		 0, 0, 1
];

_FV = [ -1.0859, -0.16312, -1.6131 ];
_FnV = [ 0.61285, 1.2941, 0.30966 ];
_GeV = [ 0; 0;	1.1081 ];

_AeW =[ -1.2843, -3.1699;
		1, -2.1657
];
_BeW = [ 2.4682; 1.6863];
_CeW = [1, 0; 0, 1];
_FW = [0.44592, -0.44384];
_FnW = [ 1.9485, 1.1265];
_GeW = [0; 0.77864];

_AeR = [ -31.956, -756.67, 3097.7;
		 1, 22.769, -120.48;
		 0, 0.18587, 4.3078
];

_BeR = [ -18.09; 
	0.70357;
	-0.025157
];

_CeR = [ 1, 0, 0;
		 0, 1, 0;
		 0, 0, 1
];
_FR = [ 29.028, 169.38, -1.6131 ];
_FnR = [ 0.61285, 1.2941, 0.30996 ];
_GeR = [ 0; 0; 0.0058399 ];


FU1 = [ -0.62991, 0.078126, -0.58652];
gU1 = 0.34208;
FnU1 = [ 1.0063, 1.9872, 0.85249 ];
GeU1 = [0; 0; 0.58324];
alphaU1 = -2.94;
betaU1 = -2.2;

FV1 = [ -0.34433, 0.36122, -0.28329 ];
gV1 = 0.31392;
FnV1 = [ 1.9183, 3.6931, 1.765 ];
GeV1 = [0; 0; 1.1081];
alphaV1 = -2.8;
betaV1 = -0.8;

AeW1 = [-1.2843, -3.4782; 1, -2.3037];
BeW1 = [2.7083; 1.7938];
FW1 = [ 0.3921, -0.23009 ];
gW1 = 0.17916;
FnW1 = [ 2.9961, 2.1731 ];
GeW1 = [0; 0.77864];
alphaW1 = -17.48;
betaW1 = -1.5;


% Parameters for QuadLion
_OUTER_P_QUADLION = [
	0		-0.2	0		0		-0.4	0		0;
	0.2		0		0		0.4		0		0		0;
	0		0		0.3		0		0		0.3		0;
	0		0		0		0		0		0		-0.5
];

_m_A_QUADLION = [
   -0.1799         0         0         0;
         0   -0.1661         0         0;
         0         0   -0.6735         0;
         0         0         0         0
];

_m_B_QUADLION = [
         0   -5.4414         0         0;
    5.6400         0         0         0;
         0         0   -9.2074         0;
         0         0         0    3.9897
];

dc_ail2phi = 0.6151;
dc_ele2tht = 0.6151;
dc_thr2w = -5.7538;
dc_rud2r = 3.3721;

damping_u = 0.0951;
damping_v = 0.0951;

ratio_u = -8.6610;
ratio_v = 8.6610;

%_Fxy = [0.9280, 1.7600, -0.1280, -0.9280, -1.7600];
%_Fxy = [0.6500 1.1500 -0.0750 -0.6500 -1.1500];
%_Fxy = [0.7250    1.6500   -0.0750   -0.7250   -1.6500];
%_Fxy = [1.1200    1.4998   -0.0980   -1.1200   -1.4998];
%_Fxy = [1.1200    1.4998   -0.035   -1.1200   -1.4998];
%_Fxy = [1.6097    1.7968   -0.1440   -1.6097   -1.7968]; % ok in vicon
_Fxy = [1.6097    1.7968   -0.035   -1.6097   -1.7968]; % ok in vicon integrator reduced
%_Fxy = [1.6097    2.4   -0.1440   -1.6097   -2.4]; 
%_Fxy = [0.9373 1.3726 -0.0810 -0.9373 -1.3726];
%_Fxy = [2.1580 2.0796 -0.196 -2.1580 -2.0796]; % best in vicon
%_Fxy = [2.1580 2.158 -0.196 -2.1580 -2.158];
%_Fxy = [2.7862 2.3624 -0.256 -2.7862 -2.3624];
 
%_Fz = [1.1000, -0.2500, -1.1000];
%_Fz = [1.4400   -0.3600   -1.4400];
_Fz = [0.7250    1.6500   -0.0750   -0.7250   -1.6500]; % tested good on July 19, 1st choice
%_Fz = [1.1200    1.4998   -0.0980   -1.1200   -1.4998]; % best in vicon
%%_Fz = [1.300    1.6   -0.0980   -1.300   -1.6]; % changed by dxx in vicon
%_Fz = [0.9    1.2   -0.08   -0.9   -1.2];
%_Fz = [0.56    0.96   -0.05   -0.56   -0.96]; 
 
%_Fc = [2.5, -1, -2.5];
_Fc = [2.0, -1, -2.0];


_Kalman_A_WF = [
    1.0000         0         0    0.0200         0         0;
         0    1.0000         0         0    0.0200         0;
         0         0    1.0000         0         0    0.0200;
         0         0         0    1.0000         0         0;
         0         0         0         0    1.0000         0;
         0         0         0         0         0    1.0000
];

_Kalman_B_WF = [
    0.0002         0         0;
         0    0.0002         0;
         0         0    0.0002;
    0.0200         0         0;
         0    0.0200         0;
         0         0    0.0200
];

_Kalman_C_WF = [
     1     0     0     0     0     0;
     0     1     0     0     0     0;
     0     0     1     0     0     0
];

_Kalman_Q_WF = [
       4.0         0         0;
         0       4.0         0;
         0         0       4.0
];

_Kalman_R_WF = [
      0.2        0         0;
        0      0.2         0;
        0        0       0.2
];

_Kalman_P_WF = [
	 1     0     0     0     0     0;
     0     1     0     0     0     0;
     0     0     1     0     0     0;
     0     0     0     1     0     0;
     0     0     0     0     1     0;
     0     0     0     0     0     1
];

_BQBt_WF = [
         0          0          0   0.000016          0          0;
         0          0          0          0   0.000016          0;
         0          0          0          0          0   0.000016;
  0.000016          0          0     0.0016          0          0;
         0   0.000016          0          0     0.0016          0;
         0          0   0.000016          0          0     0.0016
];

_Kalman_A_ZAxis = [
    1.0000    0.0200;
         0    1.0000
];

_Kalman_B_ZAxis = [
    0.0002;
    0.0200
];

_Kalman_C_ZAxis = [
     1     0
];

_Kalman_Q_ZAxis = [0.25];

_Kalman_R_ZAxis = [0.25];

_Kalman_P_ZAxis = [
	1	0;
	0	1
];

_BQBt_ZAxis = [
	0.00000001	0.000001;
	0.000001	0.0001
];

reflexxes_max_vel_xy = 3.0;
reflexxes_max_vel_z = 1.0;
reflexxes_max_vel_c = 1.0;
reflexxes_max_acc_xy = 0.5;
reflexxes_max_acc_z = 0.5;
reflexxes_max_acc_c = 0.5;
reflexxes_max_jerk_xy = 5.0;
reflexxes_max_jerk_z = 1.0;
reflexxes_max_jerk_c = 1.0;
sweep_velocity = 2.0;
sweep_distance = 10.0;